EESchema Schematic File Version 4
EELAYER 30 0
EELAYER END
$Descr A4 11693 8268
encoding utf-8
Sheet 1 1
Title ""
Date ""
Rev ""
Comp ""
Comment1 ""
Comment2 ""
Comment3 ""
Comment4 ""
$EndDescr
$Comp
L MCU_Microchip_ATtiny:ATtiny45-20PU U1
U 1 1 5FE8DF0D
P 4400 4650
F 0 "U1" H 3871 4696 50  0000 R CNN
F 1 "ATtiny45-20PU" H 3871 4605 50  0000 R CNN
F 2 "Package_DIP:DIP-8_W7.62mm_Socket_LongPads" H 4400 4650 50  0001 C CIN
F 3 "http://ww1.microchip.com/downloads/en/DeviceDoc/atmel-2586-avr-8-bit-microcontroller-attiny25-attiny45-attiny85_datasheet.pdf" H 4400 4650 50  0001 C CNN
	1    4400 4650
	1    0    0    -1  
$EndComp
$Comp
L Connector:Conn_01x03_Female J2
U 1 1 5FE8EBC9
P 6850 3550
F 0 "J2" V 6788 3362 50  0000 R CNN
F 1 "Conn_Mainboard" V 6697 3362 50  0000 R CNN
F 2 "Connector_PinSocket_2.54mm:PinSocket_1x03_P2.54mm_Vertical" H 6850 3550 50  0001 C CNN
F 3 "~" H 6850 3550 50  0001 C CNN
	1    6850 3550
	0    -1   -1   0   
$EndComp
$Comp
L Connector_Generic:Conn_02x03_Odd_Even J4
U 1 1 5FE8FB7E
P 9250 4550
F 0 "J4" H 9300 4867 50  0000 C CNN
F 1 "Delay_select" H 9300 4776 50  0000 C CNN
F 2 "Connector_PinHeader_2.54mm:PinHeader_2x03_P2.54mm_Vertical" H 9250 4550 50  0001 C CNN
F 3 "~" H 9250 4550 50  0001 C CNN
	1    9250 4550
	1    0    0    -1  
$EndComp
$Comp
L power:+3V3 #PWR04
U 1 1 5FE95351
P 6750 3750
F 0 "#PWR04" H 6750 3600 50  0001 C CNN
F 1 "+3V3" H 6800 3900 50  0000 C CNN
F 2 "" H 6750 3750 50  0001 C CNN
F 3 "" H 6750 3750 50  0001 C CNN
	1    6750 3750
	-1   0    0    1   
$EndComp
$Comp
L power:GND #PWR05
U 1 1 5FE95DAC
P 7050 3850
F 0 "#PWR05" H 7050 3600 50  0001 C CNN
F 1 "GND" V 7055 3722 50  0000 R CNN
F 2 "" H 7050 3850 50  0001 C CNN
F 3 "" H 7050 3850 50  0001 C CNN
	1    7050 3850
	0    -1   -1   0   
$EndComp
Wire Wire Line
	6950 3750 6950 3850
Wire Wire Line
	6950 3850 7050 3850
Text GLabel 6850 3750 3    50   Input ~ 0
EXT_CLOCK
Text GLabel 5000 4650 2    50   Input ~ 0
EXT_CLOCK
Text GLabel 5000 4350 2    50   Input ~ 0
DELAY_SELECT_02
Text GLabel 5000 4450 2    50   Input ~ 0
DELAY_SELECT_01
Text GLabel 5000 4550 2    50   Input ~ 0
DELAY_SELECT_00
Text GLabel 8900 4450 3    50   Input ~ 0
DELAY_SELECT_00
Text GLabel 8400 4650 3    50   Input ~ 0
DELAY_SELECT_02
Text GLabel 8650 4550 3    50   Input ~ 0
DELAY_SELECT_01
$Comp
L Device:R_Small R1
U 1 1 5FE9A861
P 5700 4850
F 0 "R1" V 5504 4850 50  0000 C CNN
F 1 "10k" V 5595 4850 50  0000 C CNN
F 2 "Resistor_SMD:R_0805_2012Metric_Pad1.20x1.40mm_HandSolder" H 5700 4850 50  0001 C CNN
F 3 "~" H 5700 4850 50  0001 C CNN
	1    5700 4850
	0    1    1    0   
$EndComp
$Comp
L power:GND #PWR02
U 1 1 5FE9F849
P 5250 5300
F 0 "#PWR02" H 5250 5050 50  0001 C CNN
F 1 "GND" H 5255 5127 50  0000 C CNN
F 2 "" H 5250 5300 50  0001 C CNN
F 3 "" H 5250 5300 50  0001 C CNN
	1    5250 5300
	1    0    0    -1  
$EndComp
Wire Wire Line
	5250 5250 5250 5300
$Comp
L Device:R_Small R4
U 1 1 5FEA0F77
P 8900 4050
F 0 "R4" H 8841 4004 50  0000 R CNN
F 1 "10k" H 8841 4095 50  0000 R CNN
F 2 "Resistor_SMD:R_0805_2012Metric_Pad1.20x1.40mm_HandSolder" H 8900 4050 50  0001 C CNN
F 3 "~" H 8900 4050 50  0001 C CNN
	1    8900 4050
	-1   0    0    1   
$EndComp
$Comp
L Device:R_Small R3
U 1 1 5FEA1E0C
P 8650 4050
F 0 "R3" H 8591 4004 50  0000 R CNN
F 1 "10k" H 8591 4095 50  0000 R CNN
F 2 "Resistor_SMD:R_0805_2012Metric_Pad1.20x1.40mm_HandSolder" H 8650 4050 50  0001 C CNN
F 3 "~" H 8650 4050 50  0001 C CNN
	1    8650 4050
	-1   0    0    1   
$EndComp
$Comp
L Device:R_Small R2
U 1 1 5FEA6DA6
P 8400 4050
F 0 "R2" H 8341 4004 50  0000 R CNN
F 1 "10k" H 8341 4095 50  0000 R CNN
F 2 "Resistor_SMD:R_0805_2012Metric_Pad1.20x1.40mm_HandSolder" H 8400 4050 50  0001 C CNN
F 3 "~" H 8400 4050 50  0001 C CNN
	1    8400 4050
	-1   0    0    1   
$EndComp
Wire Wire Line
	8900 4150 8900 4450
Wire Wire Line
	8900 4450 9050 4450
Wire Wire Line
	9050 4550 8650 4550
Wire Wire Line
	8650 4550 8650 4150
Wire Wire Line
	9050 4650 8400 4650
Wire Wire Line
	8400 4650 8400 4150
Wire Wire Line
	8900 3950 8900 3750
Wire Wire Line
	8900 3750 8650 3750
Wire Wire Line
	8400 3950 8400 3750
Wire Wire Line
	8400 3750 8650 3750
Connection ~ 8650 3750
Wire Wire Line
	8650 3750 8650 3950
$Comp
L power:GND #PWR07
U 1 1 5FEA8D32
P 9650 4750
F 0 "#PWR07" H 9650 4500 50  0001 C CNN
F 1 "GND" H 9655 4577 50  0000 C CNN
F 2 "" H 9650 4750 50  0001 C CNN
F 3 "" H 9650 4750 50  0001 C CNN
	1    9650 4750
	1    0    0    -1  
$EndComp
Wire Wire Line
	9650 4750 9650 4650
Wire Wire Line
	9650 4650 9550 4650
Wire Wire Line
	9550 4550 9650 4550
Wire Wire Line
	9650 4550 9650 4650
Connection ~ 9650 4650
Wire Wire Line
	9650 4450 9550 4450
Wire Wire Line
	9650 4450 9650 4550
Connection ~ 9650 4550
$Comp
L power:GND #PWR01
U 1 1 5FEAB0FA
P 4400 5250
F 0 "#PWR01" H 4400 5000 50  0001 C CNN
F 1 "GND" H 4405 5077 50  0000 C CNN
F 2 "" H 4400 5250 50  0001 C CNN
F 3 "" H 4400 5250 50  0001 C CNN
	1    4400 5250
	1    0    0    -1  
$EndComp
Text GLabel 5000 4750 2    50   Input ~ 0
STATUS_LED
Text GLabel 9200 5550 0    50   Input ~ 0
STATUS_LED
$Comp
L Device:R_Small R5
U 1 1 5FEAC169
P 9200 5700
F 0 "R5" H 9259 5746 50  0000 L CNN
F 1 "R_Small" H 9259 5655 50  0000 L CNN
F 2 "Resistor_SMD:R_0805_2012Metric_Pad1.20x1.40mm_HandSolder" H 9200 5700 50  0001 C CNN
F 3 "~" H 9200 5700 50  0001 C CNN
	1    9200 5700
	1    0    0    -1  
$EndComp
$Comp
L Device:LED D1
U 1 1 5FEACB22
P 9200 5950
F 0 "D1" V 9239 5832 50  0000 R CNN
F 1 "LED" V 9148 5832 50  0000 R CNN
F 2 "LED_THT:LED_D3.0mm_Clear" H 9200 5950 50  0001 C CNN
F 3 "~" H 9200 5950 50  0001 C CNN
	1    9200 5950
	0    -1   -1   0   
$EndComp
Wire Wire Line
	9200 5600 9200 5550
$Comp
L power:GND #PWR06
U 1 1 5FEADA81
P 9200 6100
F 0 "#PWR06" H 9200 5850 50  0001 C CNN
F 1 "GND" H 9205 5927 50  0000 C CNN
F 2 "" H 9200 6100 50  0001 C CNN
F 3 "" H 9200 6100 50  0001 C CNN
	1    9200 6100
	1    0    0    -1  
$EndComp
$Comp
L Switch:SW_Push_Dual_x2 SW1
U 1 1 5FEBBA26
P 5250 5050
F 0 "SW1" V 5204 5198 50  0000 L CNN
F 1 "SW_Push_Dual_x2" V 5295 5198 50  0000 L CNN
F 2 "Button_Switch_THT:SW_PUSH_6mm_H5mm" H 5250 5250 50  0001 C CNN
F 3 "~" H 5250 5250 50  0001 C CNN
	1    5250 5050
	0    1    1    0   
$EndComp
Wire Wire Line
	5000 4850 5250 4850
Connection ~ 5250 4850
Wire Wire Line
	5250 4850 5600 4850
$Comp
L Connector:Conn_01x01_Male J3
U 1 1 5FEC8B8D
P 7450 3350
F 0 "J3" H 7558 3531 50  0000 C CNN
F 1 "screw" H 7558 3440 50  0000 C CNN
F 2 "MountingHole:MountingHole_2.2mm_M2_DIN965_Pad" H 7450 3350 50  0001 C CNN
F 3 "~" H 7450 3350 50  0001 C CNN
	1    7450 3350
	1    0    0    -1  
$EndComp
NoConn ~ 7650 3350
$Comp
L Device:R_Small R6
U 1 1 5FEF6EF1
P 10400 5700
F 0 "R6" H 10459 5746 50  0000 L CNN
F 1 "R_LED" H 10459 5655 50  0000 L CNN
F 2 "Resistor_SMD:R_0805_2012Metric_Pad1.20x1.40mm_HandSolder" H 10400 5700 50  0001 C CNN
F 3 "~" H 10400 5700 50  0001 C CNN
	1    10400 5700
	1    0    0    -1  
$EndComp
$Comp
L Device:LED D2
U 1 1 5FEF6EF7
P 10400 5950
F 0 "D2" V 10439 5832 50  0000 R CNN
F 1 "LED" V 10348 5832 50  0000 R CNN
F 2 "LED_THT:LED_D3.0mm_Clear" H 10400 5950 50  0001 C CNN
F 3 "~" H 10400 5950 50  0001 C CNN
	1    10400 5950
	0    -1   -1   0   
$EndComp
Wire Wire Line
	10400 5600 10400 5550
$Comp
L power:GND #PWR08
U 1 1 5FEF6EFE
P 10400 6100
F 0 "#PWR08" H 10400 5850 50  0001 C CNN
F 1 "GND" H 10405 5927 50  0000 C CNN
F 2 "" H 10400 6100 50  0001 C CNN
F 3 "" H 10400 6100 50  0001 C CNN
	1    10400 6100
	1    0    0    -1  
$EndComp
$Comp
L Connector:Conn_01x01_Male J5
U 1 1 5FF00D7F
P 10450 3800
F 0 "J5" H 10558 3981 50  0000 C CNN
F 1 "OSHW_Logo" H 10558 3890 50  0000 C CNN
F 2 "Symbol:OSHW-Logo2_7.3x6mm_SilkScreen" H 10450 3800 50  0001 C CNN
F 3 "~" H 10450 3800 50  0001 C CNN
	1    10450 3800
	1    0    0    -1  
$EndComp
NoConn ~ 10650 3800
$Comp
L Connector:Conn_01x02_Male J1
U 1 1 5FE9C938
P 5050 2900
F 0 "J1" H 5158 3081 50  0000 C CNN
F 1 "V_IN" H 5158 2990 50  0000 C CNN
F 2 "Connector_PinHeader_2.54mm:PinHeader_1x02_P2.54mm_Vertical" H 5050 2900 50  0001 C CNN
F 3 "~" H 5050 2900 50  0001 C CNN
	1    5050 2900
	1    0    0    -1  
$EndComp
Text GLabel 5250 3000 2    50   Input ~ 0
V_supply
$Comp
L power:+3V3 #PWR03
U 1 1 5FE9D3E7
P 5300 2850
F 0 "#PWR03" H 5300 2700 50  0001 C CNN
F 1 "+3V3" H 5315 3023 50  0000 C CNN
F 2 "" H 5300 2850 50  0001 C CNN
F 3 "" H 5300 2850 50  0001 C CNN
	1    5300 2850
	1    0    0    -1  
$EndComp
Wire Wire Line
	5250 2900 5300 2900
Wire Wire Line
	5300 2900 5300 2850
Text GLabel 4400 4050 1    50   Input ~ 0
V_supply
Text GLabel 5800 4850 2    50   Input ~ 0
V_supply
Text GLabel 8650 3750 1    50   Input ~ 0
V_supply
Text GLabel 10400 5550 0    50   Input ~ 0
V_supply
$EndSCHEMATC
