
(module DISPLAY_SA56-11SRWA (layer F.Cu) (tedit 5FE36346)
  (descr "")
  (fp_text reference REF** (at -6.065 -7.995 0) (layer F.SilkS)
    (effects (font (size 1.0 1.0) (thickness 0.015)))
  )
  (fp_text value DISPLAY_SA56-11SRWA (at 2.825 7.355 0) (layer F.Fab)
    (effects (font (size 1.0 1.0) (thickness 0.015)))
  )
  (fp_line (start -9.525 -6.35) (end 9.525 -6.35) (layer F.Fab) (width 0.127))
  (fp_line (start 9.525 -6.35) (end 9.525 6.35) (layer F.Fab) (width 0.127))
  (fp_line (start 9.525 6.35) (end -9.525 6.35) (layer F.Fab) (width 0.127))
  (fp_line (start -9.525 6.35) (end -9.525 -6.35) (layer F.Fab) (width 0.127))
  (fp_circle (center -10.2 -5.08) (end -10.1 -5.08) (layer F.Fab) (width 0.2))
  (fp_circle (center -10.2 -5.08) (end -10.1 -5.08) (layer F.SilkS) (width 0.2))
  (fp_line (start -9.525 -6.35) (end 9.525 -6.35) (layer F.SilkS) (width 0.127))
  (fp_line (start 9.525 -6.35) (end 9.525 6.35) (layer F.SilkS) (width 0.127))
  (fp_line (start 9.525 6.35) (end -9.525 6.35) (layer F.SilkS) (width 0.127))
  (fp_line (start -9.525 6.35) (end -9.525 -6.35) (layer F.SilkS) (width 0.127))
  (fp_line (start -9.775 -6.6) (end 9.775 -6.6) (layer F.CrtYd) (width 0.05))
  (fp_line (start 9.775 -6.6) (end 9.775 6.6) (layer F.CrtYd) (width 0.05))
  (fp_line (start 9.775 6.6) (end -9.775 6.6) (layer F.CrtYd) (width 0.05))
  (fp_line (start -9.775 6.6) (end -9.775 -6.6) (layer F.CrtYd) (width 0.05))
  (pad 1 thru_hole rect (at -7.62 -5.08) (size 1.508 1.508) (drill 1.0) (layers *.Cu *.Mask))
  (pad 2 thru_hole circle (at -7.62 -2.54) (size 1.508 1.508) (drill 1.0) (layers *.Cu *.Mask))
  (pad 3 thru_hole circle (at -7.62 0.0) (size 1.508 1.508) (drill 1.0) (layers *.Cu *.Mask))
  (pad 4 thru_hole circle (at -7.62 2.54) (size 1.508 1.508) (drill 1.0) (layers *.Cu *.Mask))
  (pad 5 thru_hole circle (at -7.62 5.08) (size 1.508 1.508) (drill 1.0) (layers *.Cu *.Mask))
  (pad 6 thru_hole circle (at 7.62 5.08) (size 1.508 1.508) (drill 1.0) (layers *.Cu *.Mask))
  (pad 7 thru_hole circle (at 7.62 2.54) (size 1.508 1.508) (drill 1.0) (layers *.Cu *.Mask))
  (pad 8 thru_hole circle (at 7.62 0.0) (size 1.508 1.508) (drill 1.0) (layers *.Cu *.Mask))
  (pad 9 thru_hole circle (at 7.62 -2.54) (size 1.508 1.508) (drill 1.0) (layers *.Cu *.Mask))
  (pad 10 thru_hole circle (at 7.62 -5.08) (size 1.508 1.508) (drill 1.0) (layers *.Cu *.Mask))
)