%TF.GenerationSoftware,KiCad,Pcbnew,(5.1.8-0-10_14)*%
%TF.CreationDate,2020-12-28T09:37:04+01:00*%
%TF.ProjectId,HPC_Clock,4850435f-436c-46f6-936b-2e6b69636164,rev?*%
%TF.SameCoordinates,Original*%
%TF.FileFunction,Copper,L1,Top*%
%TF.FilePolarity,Positive*%
%FSLAX46Y46*%
G04 Gerber Fmt 4.6, Leading zero omitted, Abs format (unit mm)*
G04 Created by KiCad (PCBNEW (5.1.8-0-10_14)) date 2020-12-28 09:37:04*
%MOMM*%
%LPD*%
G01*
G04 APERTURE LIST*
%TA.AperFunction,ComponentPad*%
%ADD10R,1.600000X2.400000*%
%TD*%
%TA.AperFunction,ComponentPad*%
%ADD11O,1.600000X2.400000*%
%TD*%
%TA.AperFunction,ComponentPad*%
%ADD12R,1.700000X1.700000*%
%TD*%
%TA.AperFunction,ComponentPad*%
%ADD13O,1.700000X1.700000*%
%TD*%
%TA.AperFunction,ComponentPad*%
%ADD14C,2.000000*%
%TD*%
%TA.AperFunction,ComponentPad*%
%ADD15R,1.800000X1.800000*%
%TD*%
%TA.AperFunction,ComponentPad*%
%ADD16C,1.800000*%
%TD*%
%TA.AperFunction,ComponentPad*%
%ADD17C,3.800000*%
%TD*%
%TA.AperFunction,ViaPad*%
%ADD18C,0.800000*%
%TD*%
%TA.AperFunction,Conductor*%
%ADD19C,0.406400*%
%TD*%
%TA.AperFunction,Conductor*%
%ADD20C,0.609600*%
%TD*%
%TA.AperFunction,Conductor*%
%ADD21C,0.254000*%
%TD*%
%TA.AperFunction,Conductor*%
%ADD22C,0.100000*%
%TD*%
G04 APERTURE END LIST*
D10*
%TO.P,U1,1*%
%TO.N,Net-(R1-Pad2)*%
X148600000Y-82180000D03*
D11*
%TO.P,U1,5*%
%TO.N,DELAY_SELECT_02*%
X140980000Y-89800000D03*
%TO.P,U1,2*%
%TO.N,EXT_CLOCK*%
X146060000Y-82180000D03*
%TO.P,U1,6*%
%TO.N,DELAY_SELECT_01*%
X143520000Y-89800000D03*
%TO.P,U1,3*%
%TO.N,STATUS_LED*%
X143520000Y-82180000D03*
%TO.P,U1,7*%
%TO.N,DELAY_SELECT_00*%
X146060000Y-89800000D03*
%TO.P,U1,4*%
%TO.N,GND*%
X140980000Y-82180000D03*
%TO.P,U1,8*%
%TO.N,V_supply*%
X148600000Y-89800000D03*
%TD*%
D12*
%TO.P,J2,1*%
%TO.N,+3V3*%
X131900000Y-87950000D03*
D13*
%TO.P,J2,2*%
%TO.N,EXT_CLOCK*%
X131900000Y-90490000D03*
%TO.P,J2,3*%
%TO.N,GND*%
X131900000Y-93030000D03*
%TD*%
D12*
%TO.P,J4,1*%
%TO.N,DELAY_SELECT_00*%
X147000000Y-93700000D03*
D13*
%TO.P,J4,2*%
%TO.N,GND*%
X149540000Y-93700000D03*
%TO.P,J4,3*%
%TO.N,DELAY_SELECT_01*%
X147000000Y-96240000D03*
%TO.P,J4,4*%
%TO.N,GND*%
X149540000Y-96240000D03*
%TO.P,J4,5*%
%TO.N,DELAY_SELECT_02*%
X147000000Y-98780000D03*
%TO.P,J4,6*%
%TO.N,GND*%
X149540000Y-98780000D03*
%TD*%
D14*
%TO.P,SW1,2*%
%TO.N,GND*%
X158800000Y-82000000D03*
%TO.P,SW1,1*%
%TO.N,Net-(R1-Pad2)*%
X158800000Y-86500000D03*
%TO.P,SW1,2*%
%TO.N,GND*%
X152300000Y-82000000D03*
%TO.P,SW1,1*%
%TO.N,Net-(R1-Pad2)*%
X152300000Y-86500000D03*
%TD*%
D15*
%TO.P,D1,1*%
%TO.N,GND*%
X131660000Y-82750000D03*
D16*
%TO.P,D1,2*%
%TO.N,Net-(D1-Pad2)*%
X134200000Y-82750000D03*
%TD*%
D17*
%TO.P,J3,1*%
%TO.N,N/C*%
X158000000Y-90500000D03*
%TD*%
%TO.P,R1,1*%
%TO.N,V_supply*%
%TA.AperFunction,SMDPad,CuDef*%
G36*
G01*
X151400000Y-90200001D02*
X151400000Y-89299999D01*
G75*
G02*
X151649999Y-89050000I249999J0D01*
G01*
X152350001Y-89050000D01*
G75*
G02*
X152600000Y-89299999I0J-249999D01*
G01*
X152600000Y-90200001D01*
G75*
G02*
X152350001Y-90450000I-249999J0D01*
G01*
X151649999Y-90450000D01*
G75*
G02*
X151400000Y-90200001I0J249999D01*
G01*
G37*
%TD.AperFunction*%
%TO.P,R1,2*%
%TO.N,Net-(R1-Pad2)*%
%TA.AperFunction,SMDPad,CuDef*%
G36*
G01*
X153400000Y-90200001D02*
X153400000Y-89299999D01*
G75*
G02*
X153649999Y-89050000I249999J0D01*
G01*
X154350001Y-89050000D01*
G75*
G02*
X154600000Y-89299999I0J-249999D01*
G01*
X154600000Y-90200001D01*
G75*
G02*
X154350001Y-90450000I-249999J0D01*
G01*
X153649999Y-90450000D01*
G75*
G02*
X153400000Y-90200001I0J249999D01*
G01*
G37*
%TD.AperFunction*%
%TD*%
%TO.P,R2,2*%
%TO.N,V_supply*%
%TA.AperFunction,SMDPad,CuDef*%
G36*
G01*
X141600000Y-98349999D02*
X141600000Y-99250001D01*
G75*
G02*
X141350001Y-99500000I-249999J0D01*
G01*
X140649999Y-99500000D01*
G75*
G02*
X140400000Y-99250001I0J249999D01*
G01*
X140400000Y-98349999D01*
G75*
G02*
X140649999Y-98100000I249999J0D01*
G01*
X141350001Y-98100000D01*
G75*
G02*
X141600000Y-98349999I0J-249999D01*
G01*
G37*
%TD.AperFunction*%
%TO.P,R2,1*%
%TO.N,DELAY_SELECT_02*%
%TA.AperFunction,SMDPad,CuDef*%
G36*
G01*
X143600000Y-98349999D02*
X143600000Y-99250001D01*
G75*
G02*
X143350001Y-99500000I-249999J0D01*
G01*
X142649999Y-99500000D01*
G75*
G02*
X142400000Y-99250001I0J249999D01*
G01*
X142400000Y-98349999D01*
G75*
G02*
X142649999Y-98100000I249999J0D01*
G01*
X143350001Y-98100000D01*
G75*
G02*
X143600000Y-98349999I0J-249999D01*
G01*
G37*
%TD.AperFunction*%
%TD*%
%TO.P,R3,1*%
%TO.N,DELAY_SELECT_01*%
%TA.AperFunction,SMDPad,CuDef*%
G36*
G01*
X143600000Y-95799999D02*
X143600000Y-96700001D01*
G75*
G02*
X143350001Y-96950000I-249999J0D01*
G01*
X142649999Y-96950000D01*
G75*
G02*
X142400000Y-96700001I0J249999D01*
G01*
X142400000Y-95799999D01*
G75*
G02*
X142649999Y-95550000I249999J0D01*
G01*
X143350001Y-95550000D01*
G75*
G02*
X143600000Y-95799999I0J-249999D01*
G01*
G37*
%TD.AperFunction*%
%TO.P,R3,2*%
%TO.N,V_supply*%
%TA.AperFunction,SMDPad,CuDef*%
G36*
G01*
X141600000Y-95799999D02*
X141600000Y-96700001D01*
G75*
G02*
X141350001Y-96950000I-249999J0D01*
G01*
X140649999Y-96950000D01*
G75*
G02*
X140400000Y-96700001I0J249999D01*
G01*
X140400000Y-95799999D01*
G75*
G02*
X140649999Y-95550000I249999J0D01*
G01*
X141350001Y-95550000D01*
G75*
G02*
X141600000Y-95799999I0J-249999D01*
G01*
G37*
%TD.AperFunction*%
%TD*%
%TO.P,R4,2*%
%TO.N,V_supply*%
%TA.AperFunction,SMDPad,CuDef*%
G36*
G01*
X141600000Y-93249999D02*
X141600000Y-94150001D01*
G75*
G02*
X141350001Y-94400000I-249999J0D01*
G01*
X140649999Y-94400000D01*
G75*
G02*
X140400000Y-94150001I0J249999D01*
G01*
X140400000Y-93249999D01*
G75*
G02*
X140649999Y-93000000I249999J0D01*
G01*
X141350001Y-93000000D01*
G75*
G02*
X141600000Y-93249999I0J-249999D01*
G01*
G37*
%TD.AperFunction*%
%TO.P,R4,1*%
%TO.N,DELAY_SELECT_00*%
%TA.AperFunction,SMDPad,CuDef*%
G36*
G01*
X143600000Y-93249999D02*
X143600000Y-94150001D01*
G75*
G02*
X143350001Y-94400000I-249999J0D01*
G01*
X142649999Y-94400000D01*
G75*
G02*
X142400000Y-94150001I0J249999D01*
G01*
X142400000Y-93249999D01*
G75*
G02*
X142649999Y-93000000I249999J0D01*
G01*
X143350001Y-93000000D01*
G75*
G02*
X143600000Y-93249999I0J-249999D01*
G01*
G37*
%TD.AperFunction*%
%TD*%
%TO.P,R5,1*%
%TO.N,STATUS_LED*%
%TA.AperFunction,SMDPad,CuDef*%
G36*
G01*
X137450001Y-84100000D02*
X136549999Y-84100000D01*
G75*
G02*
X136300000Y-83850001I0J249999D01*
G01*
X136300000Y-83149999D01*
G75*
G02*
X136549999Y-82900000I249999J0D01*
G01*
X137450001Y-82900000D01*
G75*
G02*
X137700000Y-83149999I0J-249999D01*
G01*
X137700000Y-83850001D01*
G75*
G02*
X137450001Y-84100000I-249999J0D01*
G01*
G37*
%TD.AperFunction*%
%TO.P,R5,2*%
%TO.N,Net-(D1-Pad2)*%
%TA.AperFunction,SMDPad,CuDef*%
G36*
G01*
X137450001Y-82100000D02*
X136549999Y-82100000D01*
G75*
G02*
X136300000Y-81850001I0J249999D01*
G01*
X136300000Y-81149999D01*
G75*
G02*
X136549999Y-80900000I249999J0D01*
G01*
X137450001Y-80900000D01*
G75*
G02*
X137700000Y-81149999I0J-249999D01*
G01*
X137700000Y-81850001D01*
G75*
G02*
X137450001Y-82100000I-249999J0D01*
G01*
G37*
%TD.AperFunction*%
%TD*%
D15*
%TO.P,D2,1*%
%TO.N,GND*%
X131660000Y-98250000D03*
D16*
%TO.P,D2,2*%
%TO.N,Net-(D2-Pad2)*%
X134200000Y-98250000D03*
%TD*%
%TO.P,R6,1*%
%TO.N,V_supply*%
%TA.AperFunction,SMDPad,CuDef*%
G36*
G01*
X137450001Y-100100000D02*
X136549999Y-100100000D01*
G75*
G02*
X136300000Y-99850001I0J249999D01*
G01*
X136300000Y-99149999D01*
G75*
G02*
X136549999Y-98900000I249999J0D01*
G01*
X137450001Y-98900000D01*
G75*
G02*
X137700000Y-99149999I0J-249999D01*
G01*
X137700000Y-99850001D01*
G75*
G02*
X137450001Y-100100000I-249999J0D01*
G01*
G37*
%TD.AperFunction*%
%TO.P,R6,2*%
%TO.N,Net-(D2-Pad2)*%
%TA.AperFunction,SMDPad,CuDef*%
G36*
G01*
X137450001Y-98100000D02*
X136549999Y-98100000D01*
G75*
G02*
X136300000Y-97850001I0J249999D01*
G01*
X136300000Y-97149999D01*
G75*
G02*
X136549999Y-96900000I249999J0D01*
G01*
X137450001Y-96900000D01*
G75*
G02*
X137700000Y-97149999I0J-249999D01*
G01*
X137700000Y-97850001D01*
G75*
G02*
X137450001Y-98100000I-249999J0D01*
G01*
G37*
%TD.AperFunction*%
%TD*%
D12*
%TO.P,J1,1*%
%TO.N,+3V3*%
X136500000Y-90500000D03*
D13*
%TO.P,J1,2*%
%TO.N,V_supply*%
X136500000Y-93040000D03*
%TD*%
D18*
%TO.N,GND*%
X143750000Y-84500000D03*
%TD*%
D19*
%TO.N,Net-(D1-Pad2)*%
X135450000Y-81500000D02*
X134200000Y-82750000D01*
X137000000Y-81500000D02*
X135450000Y-81500000D01*
%TO.N,EXT_CLOCK*%
X146060000Y-82180000D02*
X146060000Y-83940000D01*
X146060000Y-83940000D02*
X143500000Y-86500000D01*
X143500000Y-86500000D02*
X137300000Y-86500000D01*
X133310000Y-90490000D02*
X131900000Y-90490000D01*
X137300000Y-86500000D02*
X133310000Y-90490000D01*
%TO.N,DELAY_SELECT_02*%
X143020000Y-98780000D02*
X143000000Y-98800000D01*
X147000000Y-98780000D02*
X143020000Y-98780000D01*
D20*
%TO.N,Net-(R1-Pad2)*%
X154000000Y-88200000D02*
X152300000Y-86500000D01*
X154000000Y-89750000D02*
X154000000Y-88200000D01*
X148600000Y-82800000D02*
X152300000Y-86500000D01*
X148600000Y-82180000D02*
X148600000Y-82800000D01*
D19*
%TO.N,DELAY_SELECT_00*%
X147000000Y-93700000D02*
X143000000Y-93700000D01*
%TO.N,DELAY_SELECT_01*%
X146990000Y-96250000D02*
X147000000Y-96240000D01*
X143000000Y-96250000D02*
X146990000Y-96250000D01*
%TO.N,STATUS_LED*%
X143520000Y-82180000D02*
X143520000Y-83230000D01*
X143520000Y-83230000D02*
X142250000Y-84500000D01*
X138000000Y-84500000D02*
X137000000Y-83500000D01*
X142250000Y-84500000D02*
X138000000Y-84500000D01*
D20*
%TO.N,Net-(D2-Pad2)*%
X134950000Y-97500000D02*
X134200000Y-98250000D01*
X137000000Y-97500000D02*
X134950000Y-97500000D01*
%TO.N,V_supply*%
X140300000Y-99500000D02*
X141000000Y-98800000D01*
X137000000Y-99500000D02*
X140300000Y-99500000D01*
X141000000Y-98800000D02*
X141000000Y-96250000D01*
X141000000Y-96250000D02*
X141000000Y-93700000D01*
X140340000Y-93040000D02*
X141000000Y-93700000D01*
X136500000Y-93040000D02*
X140340000Y-93040000D01*
X148650000Y-89750000D02*
X148600000Y-89800000D01*
X152000000Y-89750000D02*
X148650000Y-89750000D01*
%TD*%
D21*
%TO.N,GND*%
X135011928Y-91350000D02*
X135024188Y-91474482D01*
X135060498Y-91594180D01*
X135119463Y-91704494D01*
X135198815Y-91801185D01*
X135295506Y-91880537D01*
X135405820Y-91939502D01*
X135478380Y-91961513D01*
X135346525Y-92093368D01*
X135184010Y-92336589D01*
X135072068Y-92606842D01*
X135015000Y-92893740D01*
X135015000Y-93186260D01*
X135072068Y-93473158D01*
X135184010Y-93743411D01*
X135346525Y-93986632D01*
X135553368Y-94193475D01*
X135796589Y-94355990D01*
X136066842Y-94467932D01*
X136353740Y-94525000D01*
X136646260Y-94525000D01*
X136933158Y-94467932D01*
X137203411Y-94355990D01*
X137446632Y-94193475D01*
X137653475Y-93986632D01*
X137658040Y-93979800D01*
X139761928Y-93979800D01*
X139761928Y-94150001D01*
X139778992Y-94323255D01*
X139829528Y-94489851D01*
X139911595Y-94643387D01*
X140022038Y-94777962D01*
X140060201Y-94809281D01*
X140060200Y-95140719D01*
X140022038Y-95172038D01*
X139911595Y-95306613D01*
X139829528Y-95460149D01*
X139778992Y-95626745D01*
X139761928Y-95799999D01*
X139761928Y-96700001D01*
X139778992Y-96873255D01*
X139829528Y-97039851D01*
X139911595Y-97193387D01*
X140022038Y-97327962D01*
X140060201Y-97359281D01*
X140060200Y-97690719D01*
X140022038Y-97722038D01*
X139911595Y-97856613D01*
X139829528Y-98010149D01*
X139778992Y-98176745D01*
X139761928Y-98349999D01*
X139761928Y-98560200D01*
X138109281Y-98560200D01*
X138077962Y-98522038D01*
X138051109Y-98500000D01*
X138077962Y-98477962D01*
X138188405Y-98343387D01*
X138270472Y-98189851D01*
X138321008Y-98023255D01*
X138338072Y-97850001D01*
X138338072Y-97149999D01*
X138321008Y-96976745D01*
X138270472Y-96810149D01*
X138188405Y-96656613D01*
X138077962Y-96522038D01*
X137943387Y-96411595D01*
X137789851Y-96329528D01*
X137623255Y-96278992D01*
X137450001Y-96261928D01*
X136549999Y-96261928D01*
X136376745Y-96278992D01*
X136210149Y-96329528D01*
X136056613Y-96411595D01*
X135922038Y-96522038D01*
X135890719Y-96560200D01*
X134996156Y-96560200D01*
X134949999Y-96555654D01*
X134903842Y-96560200D01*
X134903833Y-96560200D01*
X134765767Y-96573798D01*
X134588614Y-96627537D01*
X134425349Y-96714804D01*
X134410688Y-96726836D01*
X134351184Y-96715000D01*
X134048816Y-96715000D01*
X133752257Y-96773989D01*
X133472905Y-96889701D01*
X133221495Y-97057688D01*
X133155056Y-97124127D01*
X133149502Y-97105820D01*
X133090537Y-96995506D01*
X133011185Y-96898815D01*
X132914494Y-96819463D01*
X132804180Y-96760498D01*
X132684482Y-96724188D01*
X132560000Y-96711928D01*
X131945750Y-96715000D01*
X131787000Y-96873750D01*
X131787000Y-98123000D01*
X131807000Y-98123000D01*
X131807000Y-98377000D01*
X131787000Y-98377000D01*
X131787000Y-99626250D01*
X131945750Y-99785000D01*
X132560000Y-99788072D01*
X132684482Y-99775812D01*
X132804180Y-99739502D01*
X132914494Y-99680537D01*
X133011185Y-99601185D01*
X133090537Y-99504494D01*
X133149502Y-99394180D01*
X133155056Y-99375873D01*
X133221495Y-99442312D01*
X133472905Y-99610299D01*
X133752257Y-99726011D01*
X134048816Y-99785000D01*
X134351184Y-99785000D01*
X134647743Y-99726011D01*
X134927095Y-99610299D01*
X135178505Y-99442312D01*
X135392312Y-99228505D01*
X135560299Y-98977095D01*
X135676011Y-98697743D01*
X135727319Y-98439800D01*
X135890719Y-98439800D01*
X135922038Y-98477962D01*
X135948891Y-98500000D01*
X135922038Y-98522038D01*
X135811595Y-98656613D01*
X135729528Y-98810149D01*
X135678992Y-98976745D01*
X135661928Y-99149999D01*
X135661928Y-99850001D01*
X135678992Y-100023255D01*
X135729528Y-100189851D01*
X135809785Y-100340000D01*
X130660000Y-100340000D01*
X130660000Y-99778223D01*
X130760000Y-99788072D01*
X131374250Y-99785000D01*
X131533000Y-99626250D01*
X131533000Y-98377000D01*
X131513000Y-98377000D01*
X131513000Y-98123000D01*
X131533000Y-98123000D01*
X131533000Y-96873750D01*
X131374250Y-96715000D01*
X130760000Y-96711928D01*
X130660000Y-96721777D01*
X130660000Y-93839340D01*
X130802412Y-94030269D01*
X131018645Y-94225178D01*
X131268748Y-94374157D01*
X131543109Y-94471481D01*
X131773000Y-94350814D01*
X131773000Y-93157000D01*
X132027000Y-93157000D01*
X132027000Y-94350814D01*
X132256891Y-94471481D01*
X132531252Y-94374157D01*
X132781355Y-94225178D01*
X132997588Y-94030269D01*
X133171641Y-93796920D01*
X133296825Y-93534099D01*
X133341476Y-93386890D01*
X133220155Y-93157000D01*
X132027000Y-93157000D01*
X131773000Y-93157000D01*
X131753000Y-93157000D01*
X131753000Y-92903000D01*
X131773000Y-92903000D01*
X131773000Y-92883000D01*
X132027000Y-92883000D01*
X132027000Y-92903000D01*
X133220155Y-92903000D01*
X133341476Y-92673110D01*
X133296825Y-92525901D01*
X133171641Y-92263080D01*
X132997588Y-92029731D01*
X132781355Y-91834822D01*
X132664466Y-91765195D01*
X132846632Y-91643475D01*
X133053475Y-91436632D01*
X133125927Y-91328200D01*
X133268837Y-91328200D01*
X133310000Y-91332254D01*
X133351163Y-91328200D01*
X133351170Y-91328200D01*
X133474316Y-91316071D01*
X133632317Y-91268142D01*
X133777932Y-91190309D01*
X133905564Y-91085564D01*
X133931811Y-91053582D01*
X135011928Y-89973465D01*
X135011928Y-91350000D01*
%TA.AperFunction,Conductor*%
D22*
G36*
X135011928Y-91350000D02*
G01*
X135024188Y-91474482D01*
X135060498Y-91594180D01*
X135119463Y-91704494D01*
X135198815Y-91801185D01*
X135295506Y-91880537D01*
X135405820Y-91939502D01*
X135478380Y-91961513D01*
X135346525Y-92093368D01*
X135184010Y-92336589D01*
X135072068Y-92606842D01*
X135015000Y-92893740D01*
X135015000Y-93186260D01*
X135072068Y-93473158D01*
X135184010Y-93743411D01*
X135346525Y-93986632D01*
X135553368Y-94193475D01*
X135796589Y-94355990D01*
X136066842Y-94467932D01*
X136353740Y-94525000D01*
X136646260Y-94525000D01*
X136933158Y-94467932D01*
X137203411Y-94355990D01*
X137446632Y-94193475D01*
X137653475Y-93986632D01*
X137658040Y-93979800D01*
X139761928Y-93979800D01*
X139761928Y-94150001D01*
X139778992Y-94323255D01*
X139829528Y-94489851D01*
X139911595Y-94643387D01*
X140022038Y-94777962D01*
X140060201Y-94809281D01*
X140060200Y-95140719D01*
X140022038Y-95172038D01*
X139911595Y-95306613D01*
X139829528Y-95460149D01*
X139778992Y-95626745D01*
X139761928Y-95799999D01*
X139761928Y-96700001D01*
X139778992Y-96873255D01*
X139829528Y-97039851D01*
X139911595Y-97193387D01*
X140022038Y-97327962D01*
X140060201Y-97359281D01*
X140060200Y-97690719D01*
X140022038Y-97722038D01*
X139911595Y-97856613D01*
X139829528Y-98010149D01*
X139778992Y-98176745D01*
X139761928Y-98349999D01*
X139761928Y-98560200D01*
X138109281Y-98560200D01*
X138077962Y-98522038D01*
X138051109Y-98500000D01*
X138077962Y-98477962D01*
X138188405Y-98343387D01*
X138270472Y-98189851D01*
X138321008Y-98023255D01*
X138338072Y-97850001D01*
X138338072Y-97149999D01*
X138321008Y-96976745D01*
X138270472Y-96810149D01*
X138188405Y-96656613D01*
X138077962Y-96522038D01*
X137943387Y-96411595D01*
X137789851Y-96329528D01*
X137623255Y-96278992D01*
X137450001Y-96261928D01*
X136549999Y-96261928D01*
X136376745Y-96278992D01*
X136210149Y-96329528D01*
X136056613Y-96411595D01*
X135922038Y-96522038D01*
X135890719Y-96560200D01*
X134996156Y-96560200D01*
X134949999Y-96555654D01*
X134903842Y-96560200D01*
X134903833Y-96560200D01*
X134765767Y-96573798D01*
X134588614Y-96627537D01*
X134425349Y-96714804D01*
X134410688Y-96726836D01*
X134351184Y-96715000D01*
X134048816Y-96715000D01*
X133752257Y-96773989D01*
X133472905Y-96889701D01*
X133221495Y-97057688D01*
X133155056Y-97124127D01*
X133149502Y-97105820D01*
X133090537Y-96995506D01*
X133011185Y-96898815D01*
X132914494Y-96819463D01*
X132804180Y-96760498D01*
X132684482Y-96724188D01*
X132560000Y-96711928D01*
X131945750Y-96715000D01*
X131787000Y-96873750D01*
X131787000Y-98123000D01*
X131807000Y-98123000D01*
X131807000Y-98377000D01*
X131787000Y-98377000D01*
X131787000Y-99626250D01*
X131945750Y-99785000D01*
X132560000Y-99788072D01*
X132684482Y-99775812D01*
X132804180Y-99739502D01*
X132914494Y-99680537D01*
X133011185Y-99601185D01*
X133090537Y-99504494D01*
X133149502Y-99394180D01*
X133155056Y-99375873D01*
X133221495Y-99442312D01*
X133472905Y-99610299D01*
X133752257Y-99726011D01*
X134048816Y-99785000D01*
X134351184Y-99785000D01*
X134647743Y-99726011D01*
X134927095Y-99610299D01*
X135178505Y-99442312D01*
X135392312Y-99228505D01*
X135560299Y-98977095D01*
X135676011Y-98697743D01*
X135727319Y-98439800D01*
X135890719Y-98439800D01*
X135922038Y-98477962D01*
X135948891Y-98500000D01*
X135922038Y-98522038D01*
X135811595Y-98656613D01*
X135729528Y-98810149D01*
X135678992Y-98976745D01*
X135661928Y-99149999D01*
X135661928Y-99850001D01*
X135678992Y-100023255D01*
X135729528Y-100189851D01*
X135809785Y-100340000D01*
X130660000Y-100340000D01*
X130660000Y-99778223D01*
X130760000Y-99788072D01*
X131374250Y-99785000D01*
X131533000Y-99626250D01*
X131533000Y-98377000D01*
X131513000Y-98377000D01*
X131513000Y-98123000D01*
X131533000Y-98123000D01*
X131533000Y-96873750D01*
X131374250Y-96715000D01*
X130760000Y-96711928D01*
X130660000Y-96721777D01*
X130660000Y-93839340D01*
X130802412Y-94030269D01*
X131018645Y-94225178D01*
X131268748Y-94374157D01*
X131543109Y-94471481D01*
X131773000Y-94350814D01*
X131773000Y-93157000D01*
X132027000Y-93157000D01*
X132027000Y-94350814D01*
X132256891Y-94471481D01*
X132531252Y-94374157D01*
X132781355Y-94225178D01*
X132997588Y-94030269D01*
X133171641Y-93796920D01*
X133296825Y-93534099D01*
X133341476Y-93386890D01*
X133220155Y-93157000D01*
X132027000Y-93157000D01*
X131773000Y-93157000D01*
X131753000Y-93157000D01*
X131753000Y-92903000D01*
X131773000Y-92903000D01*
X131773000Y-92883000D01*
X132027000Y-92883000D01*
X132027000Y-92903000D01*
X133220155Y-92903000D01*
X133341476Y-92673110D01*
X133296825Y-92525901D01*
X133171641Y-92263080D01*
X132997588Y-92029731D01*
X132781355Y-91834822D01*
X132664466Y-91765195D01*
X132846632Y-91643475D01*
X133053475Y-91436632D01*
X133125927Y-91328200D01*
X133268837Y-91328200D01*
X133310000Y-91332254D01*
X133351163Y-91328200D01*
X133351170Y-91328200D01*
X133474316Y-91316071D01*
X133632317Y-91268142D01*
X133777932Y-91190309D01*
X133905564Y-91085564D01*
X133931811Y-91053582D01*
X135011928Y-89973465D01*
X135011928Y-91350000D01*
G37*
%TD.AperFunction*%
D21*
X151344192Y-80864587D02*
X152300000Y-81820395D01*
X153255808Y-80864587D01*
X153181708Y-80660000D01*
X157918292Y-80660000D01*
X157844192Y-80864587D01*
X158800000Y-81820395D01*
X159755808Y-80864587D01*
X159681708Y-80660000D01*
X160340001Y-80660000D01*
X160340001Y-81450554D01*
X160292795Y-81313912D01*
X160199814Y-81139956D01*
X159935413Y-81044192D01*
X158979605Y-82000000D01*
X159935413Y-82955808D01*
X160199814Y-82860044D01*
X160340001Y-82571874D01*
X160340001Y-85945430D01*
X160248918Y-85725537D01*
X160069987Y-85457748D01*
X159842252Y-85230013D01*
X159574463Y-85051082D01*
X159276912Y-84927832D01*
X158961033Y-84865000D01*
X158638967Y-84865000D01*
X158323088Y-84927832D01*
X158025537Y-85051082D01*
X157757748Y-85230013D01*
X157530013Y-85457748D01*
X157351082Y-85725537D01*
X157227832Y-86023088D01*
X157165000Y-86338967D01*
X157165000Y-86661033D01*
X157227832Y-86976912D01*
X157351082Y-87274463D01*
X157530013Y-87542252D01*
X157757748Y-87769987D01*
X158025537Y-87948918D01*
X158064362Y-87965000D01*
X157750324Y-87965000D01*
X157260568Y-88062418D01*
X156799227Y-88253512D01*
X156384032Y-88530937D01*
X156030937Y-88884032D01*
X155753512Y-89299227D01*
X155562418Y-89760568D01*
X155465000Y-90250324D01*
X155465000Y-90749676D01*
X155562418Y-91239432D01*
X155753512Y-91700773D01*
X156030937Y-92115968D01*
X156384032Y-92469063D01*
X156799227Y-92746488D01*
X157260568Y-92937582D01*
X157750324Y-93035000D01*
X158249676Y-93035000D01*
X158739432Y-92937582D01*
X159200773Y-92746488D01*
X159615968Y-92469063D01*
X159969063Y-92115968D01*
X160246488Y-91700773D01*
X160340000Y-91475014D01*
X160340000Y-100340000D01*
X140722120Y-100340000D01*
X140824651Y-100285196D01*
X140967754Y-100167754D01*
X140992113Y-100138072D01*
X141350001Y-100138072D01*
X141523255Y-100121008D01*
X141689851Y-100070472D01*
X141843387Y-99988405D01*
X141977962Y-99877962D01*
X142000000Y-99851109D01*
X142022038Y-99877962D01*
X142156613Y-99988405D01*
X142310149Y-100070472D01*
X142476745Y-100121008D01*
X142649999Y-100138072D01*
X143350001Y-100138072D01*
X143523255Y-100121008D01*
X143689851Y-100070472D01*
X143843387Y-99988405D01*
X143977962Y-99877962D01*
X144088405Y-99743387D01*
X144155319Y-99618200D01*
X145774073Y-99618200D01*
X145846525Y-99726632D01*
X146053368Y-99933475D01*
X146296589Y-100095990D01*
X146566842Y-100207932D01*
X146853740Y-100265000D01*
X147146260Y-100265000D01*
X147433158Y-100207932D01*
X147703411Y-100095990D01*
X147946632Y-99933475D01*
X148153475Y-99726632D01*
X148271100Y-99550594D01*
X148442412Y-99780269D01*
X148658645Y-99975178D01*
X148908748Y-100124157D01*
X149183109Y-100221481D01*
X149413000Y-100100814D01*
X149413000Y-98907000D01*
X149667000Y-98907000D01*
X149667000Y-100100814D01*
X149896891Y-100221481D01*
X150171252Y-100124157D01*
X150421355Y-99975178D01*
X150637588Y-99780269D01*
X150811641Y-99546920D01*
X150936825Y-99284099D01*
X150981476Y-99136890D01*
X150860155Y-98907000D01*
X149667000Y-98907000D01*
X149413000Y-98907000D01*
X149393000Y-98907000D01*
X149393000Y-98653000D01*
X149413000Y-98653000D01*
X149413000Y-96367000D01*
X149667000Y-96367000D01*
X149667000Y-98653000D01*
X150860155Y-98653000D01*
X150981476Y-98423110D01*
X150936825Y-98275901D01*
X150811641Y-98013080D01*
X150637588Y-97779731D01*
X150421355Y-97584822D01*
X150295745Y-97510000D01*
X150421355Y-97435178D01*
X150637588Y-97240269D01*
X150811641Y-97006920D01*
X150936825Y-96744099D01*
X150981476Y-96596890D01*
X150860155Y-96367000D01*
X149667000Y-96367000D01*
X149413000Y-96367000D01*
X149393000Y-96367000D01*
X149393000Y-96113000D01*
X149413000Y-96113000D01*
X149413000Y-93827000D01*
X149667000Y-93827000D01*
X149667000Y-96113000D01*
X150860155Y-96113000D01*
X150981476Y-95883110D01*
X150936825Y-95735901D01*
X150811641Y-95473080D01*
X150637588Y-95239731D01*
X150421355Y-95044822D01*
X150295745Y-94970000D01*
X150421355Y-94895178D01*
X150637588Y-94700269D01*
X150811641Y-94466920D01*
X150936825Y-94204099D01*
X150981476Y-94056890D01*
X150860155Y-93827000D01*
X149667000Y-93827000D01*
X149413000Y-93827000D01*
X149393000Y-93827000D01*
X149393000Y-93573000D01*
X149413000Y-93573000D01*
X149413000Y-92379186D01*
X149667000Y-92379186D01*
X149667000Y-93573000D01*
X150860155Y-93573000D01*
X150981476Y-93343110D01*
X150936825Y-93195901D01*
X150811641Y-92933080D01*
X150637588Y-92699731D01*
X150421355Y-92504822D01*
X150171252Y-92355843D01*
X149896891Y-92258519D01*
X149667000Y-92379186D01*
X149413000Y-92379186D01*
X149183109Y-92258519D01*
X148908748Y-92355843D01*
X148658645Y-92504822D01*
X148462498Y-92681626D01*
X148439502Y-92605820D01*
X148380537Y-92495506D01*
X148301185Y-92398815D01*
X148204494Y-92319463D01*
X148094180Y-92260498D01*
X147974482Y-92224188D01*
X147850000Y-92211928D01*
X146150000Y-92211928D01*
X146025518Y-92224188D01*
X145905820Y-92260498D01*
X145795506Y-92319463D01*
X145698815Y-92398815D01*
X145619463Y-92495506D01*
X145560498Y-92605820D01*
X145524188Y-92725518D01*
X145511928Y-92850000D01*
X145511928Y-92861800D01*
X144144629Y-92861800D01*
X144088405Y-92756613D01*
X143977962Y-92622038D01*
X143843387Y-92511595D01*
X143689851Y-92429528D01*
X143523255Y-92378992D01*
X143350001Y-92361928D01*
X142649999Y-92361928D01*
X142476745Y-92378992D01*
X142310149Y-92429528D01*
X142156613Y-92511595D01*
X142022038Y-92622038D01*
X142000000Y-92648891D01*
X141977962Y-92622038D01*
X141843387Y-92511595D01*
X141689851Y-92429528D01*
X141523255Y-92378992D01*
X141350001Y-92361928D01*
X140995182Y-92361928D01*
X140864651Y-92254804D01*
X140701386Y-92167537D01*
X140524233Y-92113798D01*
X140386167Y-92100200D01*
X140386157Y-92100200D01*
X140340000Y-92095654D01*
X140293843Y-92100200D01*
X137658040Y-92100200D01*
X137653475Y-92093368D01*
X137521620Y-91961513D01*
X137594180Y-91939502D01*
X137704494Y-91880537D01*
X137801185Y-91801185D01*
X137880537Y-91704494D01*
X137939502Y-91594180D01*
X137975812Y-91474482D01*
X137988072Y-91350000D01*
X137988072Y-89650000D01*
X137975812Y-89525518D01*
X137939502Y-89405820D01*
X137880537Y-89295506D01*
X137801185Y-89198815D01*
X137704494Y-89119463D01*
X137594180Y-89060498D01*
X137474482Y-89024188D01*
X137350000Y-89011928D01*
X135973466Y-89011928D01*
X137647194Y-87338200D01*
X143458837Y-87338200D01*
X143500000Y-87342254D01*
X143541163Y-87338200D01*
X143541170Y-87338200D01*
X143664316Y-87326071D01*
X143822317Y-87278142D01*
X143967932Y-87200309D01*
X144095564Y-87095564D01*
X144121811Y-87063582D01*
X146623588Y-84561806D01*
X146655564Y-84535564D01*
X146760309Y-84407932D01*
X146838142Y-84262317D01*
X146886071Y-84104316D01*
X146898200Y-83981170D01*
X146898200Y-83981163D01*
X146902254Y-83940000D01*
X146898200Y-83898837D01*
X146898200Y-83748485D01*
X147079607Y-83599608D01*
X147172419Y-83486517D01*
X147174188Y-83504482D01*
X147210498Y-83624180D01*
X147269463Y-83734494D01*
X147348815Y-83831185D01*
X147445506Y-83910537D01*
X147555820Y-83969502D01*
X147675518Y-84005812D01*
X147800000Y-84018072D01*
X148488996Y-84018072D01*
X150689039Y-86218116D01*
X150665000Y-86338967D01*
X150665000Y-86661033D01*
X150727832Y-86976912D01*
X150851082Y-87274463D01*
X151030013Y-87542252D01*
X151257748Y-87769987D01*
X151525537Y-87948918D01*
X151823088Y-88072168D01*
X152138967Y-88135000D01*
X152461033Y-88135000D01*
X152581885Y-88110961D01*
X153060201Y-88589278D01*
X153060201Y-88640719D01*
X153022038Y-88672038D01*
X153000000Y-88698891D01*
X152977962Y-88672038D01*
X152843387Y-88561595D01*
X152689851Y-88479528D01*
X152523255Y-88428992D01*
X152350001Y-88411928D01*
X151649999Y-88411928D01*
X151476745Y-88428992D01*
X151310149Y-88479528D01*
X151156613Y-88561595D01*
X151022038Y-88672038D01*
X150911595Y-88806613D01*
X150909678Y-88810200D01*
X149911875Y-88810200D01*
X149798932Y-88598899D01*
X149619608Y-88380392D01*
X149401101Y-88201068D01*
X149151808Y-88067818D01*
X148881309Y-87985764D01*
X148600000Y-87958057D01*
X148318692Y-87985764D01*
X148048193Y-88067818D01*
X147798900Y-88201068D01*
X147580393Y-88380392D01*
X147401068Y-88598899D01*
X147330000Y-88731858D01*
X147258932Y-88598899D01*
X147079608Y-88380392D01*
X146861101Y-88201068D01*
X146611808Y-88067818D01*
X146341309Y-87985764D01*
X146060000Y-87958057D01*
X145778692Y-87985764D01*
X145508193Y-88067818D01*
X145258900Y-88201068D01*
X145040393Y-88380392D01*
X144861068Y-88598899D01*
X144790000Y-88731858D01*
X144718932Y-88598899D01*
X144539608Y-88380392D01*
X144321101Y-88201068D01*
X144071808Y-88067818D01*
X143801309Y-87985764D01*
X143520000Y-87958057D01*
X143238692Y-87985764D01*
X142968193Y-88067818D01*
X142718900Y-88201068D01*
X142500393Y-88380392D01*
X142321068Y-88598899D01*
X142250000Y-88731858D01*
X142178932Y-88598899D01*
X141999608Y-88380392D01*
X141781101Y-88201068D01*
X141531808Y-88067818D01*
X141261309Y-87985764D01*
X140980000Y-87958057D01*
X140698692Y-87985764D01*
X140428193Y-88067818D01*
X140178900Y-88201068D01*
X139960393Y-88380392D01*
X139781068Y-88598899D01*
X139647818Y-88848192D01*
X139565764Y-89118691D01*
X139545000Y-89329508D01*
X139545000Y-90270491D01*
X139565764Y-90481308D01*
X139647818Y-90751807D01*
X139781068Y-91001100D01*
X139960392Y-91219607D01*
X140178899Y-91398932D01*
X140428192Y-91532182D01*
X140698691Y-91614236D01*
X140980000Y-91641943D01*
X141261308Y-91614236D01*
X141531807Y-91532182D01*
X141781100Y-91398932D01*
X141999607Y-91219608D01*
X142178932Y-91001101D01*
X142250000Y-90868142D01*
X142321068Y-91001100D01*
X142500392Y-91219607D01*
X142718899Y-91398932D01*
X142968192Y-91532182D01*
X143238691Y-91614236D01*
X143520000Y-91641943D01*
X143801308Y-91614236D01*
X144071807Y-91532182D01*
X144321100Y-91398932D01*
X144539607Y-91219608D01*
X144718932Y-91001101D01*
X144790000Y-90868142D01*
X144861068Y-91001100D01*
X145040392Y-91219607D01*
X145258899Y-91398932D01*
X145508192Y-91532182D01*
X145778691Y-91614236D01*
X146060000Y-91641943D01*
X146341308Y-91614236D01*
X146611807Y-91532182D01*
X146861100Y-91398932D01*
X147079607Y-91219608D01*
X147258932Y-91001101D01*
X147330000Y-90868142D01*
X147401068Y-91001100D01*
X147580392Y-91219607D01*
X147798899Y-91398932D01*
X148048192Y-91532182D01*
X148318691Y-91614236D01*
X148600000Y-91641943D01*
X148881308Y-91614236D01*
X149151807Y-91532182D01*
X149401100Y-91398932D01*
X149619607Y-91219608D01*
X149798932Y-91001101D01*
X149932182Y-90751808D01*
X149950992Y-90689800D01*
X150909678Y-90689800D01*
X150911595Y-90693387D01*
X151022038Y-90827962D01*
X151156613Y-90938405D01*
X151310149Y-91020472D01*
X151476745Y-91071008D01*
X151649999Y-91088072D01*
X152350001Y-91088072D01*
X152523255Y-91071008D01*
X152689851Y-91020472D01*
X152843387Y-90938405D01*
X152977962Y-90827962D01*
X153000000Y-90801109D01*
X153022038Y-90827962D01*
X153156613Y-90938405D01*
X153310149Y-91020472D01*
X153476745Y-91071008D01*
X153649999Y-91088072D01*
X154350001Y-91088072D01*
X154523255Y-91071008D01*
X154689851Y-91020472D01*
X154843387Y-90938405D01*
X154977962Y-90827962D01*
X155088405Y-90693387D01*
X155170472Y-90539851D01*
X155221008Y-90373255D01*
X155238072Y-90200001D01*
X155238072Y-89299999D01*
X155221008Y-89126745D01*
X155170472Y-88960149D01*
X155088405Y-88806613D01*
X154977962Y-88672038D01*
X154939800Y-88640719D01*
X154939800Y-88246156D01*
X154944346Y-88199999D01*
X154939800Y-88153842D01*
X154939800Y-88153833D01*
X154926202Y-88015767D01*
X154872463Y-87838614D01*
X154831841Y-87762615D01*
X154785196Y-87675348D01*
X154735828Y-87615194D01*
X154667754Y-87532246D01*
X154631890Y-87502813D01*
X153910961Y-86781885D01*
X153935000Y-86661033D01*
X153935000Y-86338967D01*
X153872168Y-86023088D01*
X153748918Y-85725537D01*
X153569987Y-85457748D01*
X153342252Y-85230013D01*
X153074463Y-85051082D01*
X152776912Y-84927832D01*
X152461033Y-84865000D01*
X152138967Y-84865000D01*
X152018116Y-84889039D01*
X150264490Y-83135413D01*
X151344192Y-83135413D01*
X151439956Y-83399814D01*
X151729571Y-83540704D01*
X152041108Y-83622384D01*
X152362595Y-83641718D01*
X152681675Y-83597961D01*
X152986088Y-83492795D01*
X153160044Y-83399814D01*
X153255808Y-83135413D01*
X157844192Y-83135413D01*
X157939956Y-83399814D01*
X158229571Y-83540704D01*
X158541108Y-83622384D01*
X158862595Y-83641718D01*
X159181675Y-83597961D01*
X159486088Y-83492795D01*
X159660044Y-83399814D01*
X159755808Y-83135413D01*
X158800000Y-82179605D01*
X157844192Y-83135413D01*
X153255808Y-83135413D01*
X152300000Y-82179605D01*
X151344192Y-83135413D01*
X150264490Y-83135413D01*
X150038072Y-82908996D01*
X150038072Y-82062595D01*
X150658282Y-82062595D01*
X150702039Y-82381675D01*
X150807205Y-82686088D01*
X150900186Y-82860044D01*
X151164587Y-82955808D01*
X152120395Y-82000000D01*
X152479605Y-82000000D01*
X153435413Y-82955808D01*
X153699814Y-82860044D01*
X153840704Y-82570429D01*
X153922384Y-82258892D01*
X153934189Y-82062595D01*
X157158282Y-82062595D01*
X157202039Y-82381675D01*
X157307205Y-82686088D01*
X157400186Y-82860044D01*
X157664587Y-82955808D01*
X158620395Y-82000000D01*
X157664587Y-81044192D01*
X157400186Y-81139956D01*
X157259296Y-81429571D01*
X157177616Y-81741108D01*
X157158282Y-82062595D01*
X153934189Y-82062595D01*
X153941718Y-81937405D01*
X153897961Y-81618325D01*
X153792795Y-81313912D01*
X153699814Y-81139956D01*
X153435413Y-81044192D01*
X152479605Y-82000000D01*
X152120395Y-82000000D01*
X151164587Y-81044192D01*
X150900186Y-81139956D01*
X150759296Y-81429571D01*
X150677616Y-81741108D01*
X150658282Y-82062595D01*
X150038072Y-82062595D01*
X150038072Y-80980000D01*
X150025812Y-80855518D01*
X149989502Y-80735820D01*
X149948975Y-80660000D01*
X151418292Y-80660000D01*
X151344192Y-80864587D01*
%TA.AperFunction,Conductor*%
D22*
G36*
X151344192Y-80864587D02*
G01*
X152300000Y-81820395D01*
X153255808Y-80864587D01*
X153181708Y-80660000D01*
X157918292Y-80660000D01*
X157844192Y-80864587D01*
X158800000Y-81820395D01*
X159755808Y-80864587D01*
X159681708Y-80660000D01*
X160340001Y-80660000D01*
X160340001Y-81450554D01*
X160292795Y-81313912D01*
X160199814Y-81139956D01*
X159935413Y-81044192D01*
X158979605Y-82000000D01*
X159935413Y-82955808D01*
X160199814Y-82860044D01*
X160340001Y-82571874D01*
X160340001Y-85945430D01*
X160248918Y-85725537D01*
X160069987Y-85457748D01*
X159842252Y-85230013D01*
X159574463Y-85051082D01*
X159276912Y-84927832D01*
X158961033Y-84865000D01*
X158638967Y-84865000D01*
X158323088Y-84927832D01*
X158025537Y-85051082D01*
X157757748Y-85230013D01*
X157530013Y-85457748D01*
X157351082Y-85725537D01*
X157227832Y-86023088D01*
X157165000Y-86338967D01*
X157165000Y-86661033D01*
X157227832Y-86976912D01*
X157351082Y-87274463D01*
X157530013Y-87542252D01*
X157757748Y-87769987D01*
X158025537Y-87948918D01*
X158064362Y-87965000D01*
X157750324Y-87965000D01*
X157260568Y-88062418D01*
X156799227Y-88253512D01*
X156384032Y-88530937D01*
X156030937Y-88884032D01*
X155753512Y-89299227D01*
X155562418Y-89760568D01*
X155465000Y-90250324D01*
X155465000Y-90749676D01*
X155562418Y-91239432D01*
X155753512Y-91700773D01*
X156030937Y-92115968D01*
X156384032Y-92469063D01*
X156799227Y-92746488D01*
X157260568Y-92937582D01*
X157750324Y-93035000D01*
X158249676Y-93035000D01*
X158739432Y-92937582D01*
X159200773Y-92746488D01*
X159615968Y-92469063D01*
X159969063Y-92115968D01*
X160246488Y-91700773D01*
X160340000Y-91475014D01*
X160340000Y-100340000D01*
X140722120Y-100340000D01*
X140824651Y-100285196D01*
X140967754Y-100167754D01*
X140992113Y-100138072D01*
X141350001Y-100138072D01*
X141523255Y-100121008D01*
X141689851Y-100070472D01*
X141843387Y-99988405D01*
X141977962Y-99877962D01*
X142000000Y-99851109D01*
X142022038Y-99877962D01*
X142156613Y-99988405D01*
X142310149Y-100070472D01*
X142476745Y-100121008D01*
X142649999Y-100138072D01*
X143350001Y-100138072D01*
X143523255Y-100121008D01*
X143689851Y-100070472D01*
X143843387Y-99988405D01*
X143977962Y-99877962D01*
X144088405Y-99743387D01*
X144155319Y-99618200D01*
X145774073Y-99618200D01*
X145846525Y-99726632D01*
X146053368Y-99933475D01*
X146296589Y-100095990D01*
X146566842Y-100207932D01*
X146853740Y-100265000D01*
X147146260Y-100265000D01*
X147433158Y-100207932D01*
X147703411Y-100095990D01*
X147946632Y-99933475D01*
X148153475Y-99726632D01*
X148271100Y-99550594D01*
X148442412Y-99780269D01*
X148658645Y-99975178D01*
X148908748Y-100124157D01*
X149183109Y-100221481D01*
X149413000Y-100100814D01*
X149413000Y-98907000D01*
X149667000Y-98907000D01*
X149667000Y-100100814D01*
X149896891Y-100221481D01*
X150171252Y-100124157D01*
X150421355Y-99975178D01*
X150637588Y-99780269D01*
X150811641Y-99546920D01*
X150936825Y-99284099D01*
X150981476Y-99136890D01*
X150860155Y-98907000D01*
X149667000Y-98907000D01*
X149413000Y-98907000D01*
X149393000Y-98907000D01*
X149393000Y-98653000D01*
X149413000Y-98653000D01*
X149413000Y-96367000D01*
X149667000Y-96367000D01*
X149667000Y-98653000D01*
X150860155Y-98653000D01*
X150981476Y-98423110D01*
X150936825Y-98275901D01*
X150811641Y-98013080D01*
X150637588Y-97779731D01*
X150421355Y-97584822D01*
X150295745Y-97510000D01*
X150421355Y-97435178D01*
X150637588Y-97240269D01*
X150811641Y-97006920D01*
X150936825Y-96744099D01*
X150981476Y-96596890D01*
X150860155Y-96367000D01*
X149667000Y-96367000D01*
X149413000Y-96367000D01*
X149393000Y-96367000D01*
X149393000Y-96113000D01*
X149413000Y-96113000D01*
X149413000Y-93827000D01*
X149667000Y-93827000D01*
X149667000Y-96113000D01*
X150860155Y-96113000D01*
X150981476Y-95883110D01*
X150936825Y-95735901D01*
X150811641Y-95473080D01*
X150637588Y-95239731D01*
X150421355Y-95044822D01*
X150295745Y-94970000D01*
X150421355Y-94895178D01*
X150637588Y-94700269D01*
X150811641Y-94466920D01*
X150936825Y-94204099D01*
X150981476Y-94056890D01*
X150860155Y-93827000D01*
X149667000Y-93827000D01*
X149413000Y-93827000D01*
X149393000Y-93827000D01*
X149393000Y-93573000D01*
X149413000Y-93573000D01*
X149413000Y-92379186D01*
X149667000Y-92379186D01*
X149667000Y-93573000D01*
X150860155Y-93573000D01*
X150981476Y-93343110D01*
X150936825Y-93195901D01*
X150811641Y-92933080D01*
X150637588Y-92699731D01*
X150421355Y-92504822D01*
X150171252Y-92355843D01*
X149896891Y-92258519D01*
X149667000Y-92379186D01*
X149413000Y-92379186D01*
X149183109Y-92258519D01*
X148908748Y-92355843D01*
X148658645Y-92504822D01*
X148462498Y-92681626D01*
X148439502Y-92605820D01*
X148380537Y-92495506D01*
X148301185Y-92398815D01*
X148204494Y-92319463D01*
X148094180Y-92260498D01*
X147974482Y-92224188D01*
X147850000Y-92211928D01*
X146150000Y-92211928D01*
X146025518Y-92224188D01*
X145905820Y-92260498D01*
X145795506Y-92319463D01*
X145698815Y-92398815D01*
X145619463Y-92495506D01*
X145560498Y-92605820D01*
X145524188Y-92725518D01*
X145511928Y-92850000D01*
X145511928Y-92861800D01*
X144144629Y-92861800D01*
X144088405Y-92756613D01*
X143977962Y-92622038D01*
X143843387Y-92511595D01*
X143689851Y-92429528D01*
X143523255Y-92378992D01*
X143350001Y-92361928D01*
X142649999Y-92361928D01*
X142476745Y-92378992D01*
X142310149Y-92429528D01*
X142156613Y-92511595D01*
X142022038Y-92622038D01*
X142000000Y-92648891D01*
X141977962Y-92622038D01*
X141843387Y-92511595D01*
X141689851Y-92429528D01*
X141523255Y-92378992D01*
X141350001Y-92361928D01*
X140995182Y-92361928D01*
X140864651Y-92254804D01*
X140701386Y-92167537D01*
X140524233Y-92113798D01*
X140386167Y-92100200D01*
X140386157Y-92100200D01*
X140340000Y-92095654D01*
X140293843Y-92100200D01*
X137658040Y-92100200D01*
X137653475Y-92093368D01*
X137521620Y-91961513D01*
X137594180Y-91939502D01*
X137704494Y-91880537D01*
X137801185Y-91801185D01*
X137880537Y-91704494D01*
X137939502Y-91594180D01*
X137975812Y-91474482D01*
X137988072Y-91350000D01*
X137988072Y-89650000D01*
X137975812Y-89525518D01*
X137939502Y-89405820D01*
X137880537Y-89295506D01*
X137801185Y-89198815D01*
X137704494Y-89119463D01*
X137594180Y-89060498D01*
X137474482Y-89024188D01*
X137350000Y-89011928D01*
X135973466Y-89011928D01*
X137647194Y-87338200D01*
X143458837Y-87338200D01*
X143500000Y-87342254D01*
X143541163Y-87338200D01*
X143541170Y-87338200D01*
X143664316Y-87326071D01*
X143822317Y-87278142D01*
X143967932Y-87200309D01*
X144095564Y-87095564D01*
X144121811Y-87063582D01*
X146623588Y-84561806D01*
X146655564Y-84535564D01*
X146760309Y-84407932D01*
X146838142Y-84262317D01*
X146886071Y-84104316D01*
X146898200Y-83981170D01*
X146898200Y-83981163D01*
X146902254Y-83940000D01*
X146898200Y-83898837D01*
X146898200Y-83748485D01*
X147079607Y-83599608D01*
X147172419Y-83486517D01*
X147174188Y-83504482D01*
X147210498Y-83624180D01*
X147269463Y-83734494D01*
X147348815Y-83831185D01*
X147445506Y-83910537D01*
X147555820Y-83969502D01*
X147675518Y-84005812D01*
X147800000Y-84018072D01*
X148488996Y-84018072D01*
X150689039Y-86218116D01*
X150665000Y-86338967D01*
X150665000Y-86661033D01*
X150727832Y-86976912D01*
X150851082Y-87274463D01*
X151030013Y-87542252D01*
X151257748Y-87769987D01*
X151525537Y-87948918D01*
X151823088Y-88072168D01*
X152138967Y-88135000D01*
X152461033Y-88135000D01*
X152581885Y-88110961D01*
X153060201Y-88589278D01*
X153060201Y-88640719D01*
X153022038Y-88672038D01*
X153000000Y-88698891D01*
X152977962Y-88672038D01*
X152843387Y-88561595D01*
X152689851Y-88479528D01*
X152523255Y-88428992D01*
X152350001Y-88411928D01*
X151649999Y-88411928D01*
X151476745Y-88428992D01*
X151310149Y-88479528D01*
X151156613Y-88561595D01*
X151022038Y-88672038D01*
X150911595Y-88806613D01*
X150909678Y-88810200D01*
X149911875Y-88810200D01*
X149798932Y-88598899D01*
X149619608Y-88380392D01*
X149401101Y-88201068D01*
X149151808Y-88067818D01*
X148881309Y-87985764D01*
X148600000Y-87958057D01*
X148318692Y-87985764D01*
X148048193Y-88067818D01*
X147798900Y-88201068D01*
X147580393Y-88380392D01*
X147401068Y-88598899D01*
X147330000Y-88731858D01*
X147258932Y-88598899D01*
X147079608Y-88380392D01*
X146861101Y-88201068D01*
X146611808Y-88067818D01*
X146341309Y-87985764D01*
X146060000Y-87958057D01*
X145778692Y-87985764D01*
X145508193Y-88067818D01*
X145258900Y-88201068D01*
X145040393Y-88380392D01*
X144861068Y-88598899D01*
X144790000Y-88731858D01*
X144718932Y-88598899D01*
X144539608Y-88380392D01*
X144321101Y-88201068D01*
X144071808Y-88067818D01*
X143801309Y-87985764D01*
X143520000Y-87958057D01*
X143238692Y-87985764D01*
X142968193Y-88067818D01*
X142718900Y-88201068D01*
X142500393Y-88380392D01*
X142321068Y-88598899D01*
X142250000Y-88731858D01*
X142178932Y-88598899D01*
X141999608Y-88380392D01*
X141781101Y-88201068D01*
X141531808Y-88067818D01*
X141261309Y-87985764D01*
X140980000Y-87958057D01*
X140698692Y-87985764D01*
X140428193Y-88067818D01*
X140178900Y-88201068D01*
X139960393Y-88380392D01*
X139781068Y-88598899D01*
X139647818Y-88848192D01*
X139565764Y-89118691D01*
X139545000Y-89329508D01*
X139545000Y-90270491D01*
X139565764Y-90481308D01*
X139647818Y-90751807D01*
X139781068Y-91001100D01*
X139960392Y-91219607D01*
X140178899Y-91398932D01*
X140428192Y-91532182D01*
X140698691Y-91614236D01*
X140980000Y-91641943D01*
X141261308Y-91614236D01*
X141531807Y-91532182D01*
X141781100Y-91398932D01*
X141999607Y-91219608D01*
X142178932Y-91001101D01*
X142250000Y-90868142D01*
X142321068Y-91001100D01*
X142500392Y-91219607D01*
X142718899Y-91398932D01*
X142968192Y-91532182D01*
X143238691Y-91614236D01*
X143520000Y-91641943D01*
X143801308Y-91614236D01*
X144071807Y-91532182D01*
X144321100Y-91398932D01*
X144539607Y-91219608D01*
X144718932Y-91001101D01*
X144790000Y-90868142D01*
X144861068Y-91001100D01*
X145040392Y-91219607D01*
X145258899Y-91398932D01*
X145508192Y-91532182D01*
X145778691Y-91614236D01*
X146060000Y-91641943D01*
X146341308Y-91614236D01*
X146611807Y-91532182D01*
X146861100Y-91398932D01*
X147079607Y-91219608D01*
X147258932Y-91001101D01*
X147330000Y-90868142D01*
X147401068Y-91001100D01*
X147580392Y-91219607D01*
X147798899Y-91398932D01*
X148048192Y-91532182D01*
X148318691Y-91614236D01*
X148600000Y-91641943D01*
X148881308Y-91614236D01*
X149151807Y-91532182D01*
X149401100Y-91398932D01*
X149619607Y-91219608D01*
X149798932Y-91001101D01*
X149932182Y-90751808D01*
X149950992Y-90689800D01*
X150909678Y-90689800D01*
X150911595Y-90693387D01*
X151022038Y-90827962D01*
X151156613Y-90938405D01*
X151310149Y-91020472D01*
X151476745Y-91071008D01*
X151649999Y-91088072D01*
X152350001Y-91088072D01*
X152523255Y-91071008D01*
X152689851Y-91020472D01*
X152843387Y-90938405D01*
X152977962Y-90827962D01*
X153000000Y-90801109D01*
X153022038Y-90827962D01*
X153156613Y-90938405D01*
X153310149Y-91020472D01*
X153476745Y-91071008D01*
X153649999Y-91088072D01*
X154350001Y-91088072D01*
X154523255Y-91071008D01*
X154689851Y-91020472D01*
X154843387Y-90938405D01*
X154977962Y-90827962D01*
X155088405Y-90693387D01*
X155170472Y-90539851D01*
X155221008Y-90373255D01*
X155238072Y-90200001D01*
X155238072Y-89299999D01*
X155221008Y-89126745D01*
X155170472Y-88960149D01*
X155088405Y-88806613D01*
X154977962Y-88672038D01*
X154939800Y-88640719D01*
X154939800Y-88246156D01*
X154944346Y-88199999D01*
X154939800Y-88153842D01*
X154939800Y-88153833D01*
X154926202Y-88015767D01*
X154872463Y-87838614D01*
X154831841Y-87762615D01*
X154785196Y-87675348D01*
X154735828Y-87615194D01*
X154667754Y-87532246D01*
X154631890Y-87502813D01*
X153910961Y-86781885D01*
X153935000Y-86661033D01*
X153935000Y-86338967D01*
X153872168Y-86023088D01*
X153748918Y-85725537D01*
X153569987Y-85457748D01*
X153342252Y-85230013D01*
X153074463Y-85051082D01*
X152776912Y-84927832D01*
X152461033Y-84865000D01*
X152138967Y-84865000D01*
X152018116Y-84889039D01*
X150264490Y-83135413D01*
X151344192Y-83135413D01*
X151439956Y-83399814D01*
X151729571Y-83540704D01*
X152041108Y-83622384D01*
X152362595Y-83641718D01*
X152681675Y-83597961D01*
X152986088Y-83492795D01*
X153160044Y-83399814D01*
X153255808Y-83135413D01*
X157844192Y-83135413D01*
X157939956Y-83399814D01*
X158229571Y-83540704D01*
X158541108Y-83622384D01*
X158862595Y-83641718D01*
X159181675Y-83597961D01*
X159486088Y-83492795D01*
X159660044Y-83399814D01*
X159755808Y-83135413D01*
X158800000Y-82179605D01*
X157844192Y-83135413D01*
X153255808Y-83135413D01*
X152300000Y-82179605D01*
X151344192Y-83135413D01*
X150264490Y-83135413D01*
X150038072Y-82908996D01*
X150038072Y-82062595D01*
X150658282Y-82062595D01*
X150702039Y-82381675D01*
X150807205Y-82686088D01*
X150900186Y-82860044D01*
X151164587Y-82955808D01*
X152120395Y-82000000D01*
X152479605Y-82000000D01*
X153435413Y-82955808D01*
X153699814Y-82860044D01*
X153840704Y-82570429D01*
X153922384Y-82258892D01*
X153934189Y-82062595D01*
X157158282Y-82062595D01*
X157202039Y-82381675D01*
X157307205Y-82686088D01*
X157400186Y-82860044D01*
X157664587Y-82955808D01*
X158620395Y-82000000D01*
X157664587Y-81044192D01*
X157400186Y-81139956D01*
X157259296Y-81429571D01*
X157177616Y-81741108D01*
X157158282Y-82062595D01*
X153934189Y-82062595D01*
X153941718Y-81937405D01*
X153897961Y-81618325D01*
X153792795Y-81313912D01*
X153699814Y-81139956D01*
X153435413Y-81044192D01*
X152479605Y-82000000D01*
X152120395Y-82000000D01*
X151164587Y-81044192D01*
X150900186Y-81139956D01*
X150759296Y-81429571D01*
X150677616Y-81741108D01*
X150658282Y-82062595D01*
X150038072Y-82062595D01*
X150038072Y-80980000D01*
X150025812Y-80855518D01*
X149989502Y-80735820D01*
X149948975Y-80660000D01*
X151418292Y-80660000D01*
X151344192Y-80864587D01*
G37*
%TD.AperFunction*%
D21*
X135408837Y-80661800D02*
X135408830Y-80661800D01*
X135285684Y-80673929D01*
X135127683Y-80721858D01*
X134982068Y-80799691D01*
X134887671Y-80877161D01*
X134854436Y-80904436D01*
X134828193Y-80936413D01*
X134516686Y-81247920D01*
X134351184Y-81215000D01*
X134048816Y-81215000D01*
X133752257Y-81273989D01*
X133472905Y-81389701D01*
X133221495Y-81557688D01*
X133155056Y-81624127D01*
X133149502Y-81605820D01*
X133090537Y-81495506D01*
X133011185Y-81398815D01*
X132914494Y-81319463D01*
X132804180Y-81260498D01*
X132684482Y-81224188D01*
X132560000Y-81211928D01*
X131945750Y-81215000D01*
X131787000Y-81373750D01*
X131787000Y-82623000D01*
X131807000Y-82623000D01*
X131807000Y-82877000D01*
X131787000Y-82877000D01*
X131787000Y-84126250D01*
X131945750Y-84285000D01*
X132560000Y-84288072D01*
X132684482Y-84275812D01*
X132804180Y-84239502D01*
X132914494Y-84180537D01*
X133011185Y-84101185D01*
X133090537Y-84004494D01*
X133149502Y-83894180D01*
X133155056Y-83875873D01*
X133221495Y-83942312D01*
X133472905Y-84110299D01*
X133752257Y-84226011D01*
X134048816Y-84285000D01*
X134351184Y-84285000D01*
X134647743Y-84226011D01*
X134927095Y-84110299D01*
X135178505Y-83942312D01*
X135392312Y-83728505D01*
X135560299Y-83477095D01*
X135661928Y-83231742D01*
X135661928Y-83850001D01*
X135678992Y-84023255D01*
X135729528Y-84189851D01*
X135811595Y-84343387D01*
X135922038Y-84477962D01*
X136056613Y-84588405D01*
X136210149Y-84670472D01*
X136376745Y-84721008D01*
X136549999Y-84738072D01*
X137052678Y-84738072D01*
X137378193Y-85063587D01*
X137404436Y-85095564D01*
X137532068Y-85200309D01*
X137677683Y-85278142D01*
X137835684Y-85326071D01*
X137958830Y-85338200D01*
X137958837Y-85338200D01*
X138000000Y-85342254D01*
X138041163Y-85338200D01*
X142208837Y-85338200D01*
X142250000Y-85342254D01*
X142291163Y-85338200D01*
X142291170Y-85338200D01*
X142414316Y-85326071D01*
X142572317Y-85278142D01*
X142717932Y-85200309D01*
X142845564Y-85095564D01*
X142871811Y-85063582D01*
X144002052Y-83933342D01*
X144071807Y-83912182D01*
X144321100Y-83778932D01*
X144539607Y-83599608D01*
X144718932Y-83381101D01*
X144790000Y-83248142D01*
X144861068Y-83381100D01*
X145040392Y-83599607D01*
X145136294Y-83678312D01*
X143152807Y-85661800D01*
X137341162Y-85661800D01*
X137299999Y-85657746D01*
X137258836Y-85661800D01*
X137258830Y-85661800D01*
X137135684Y-85673929D01*
X136977683Y-85721858D01*
X136832068Y-85799691D01*
X136704436Y-85904436D01*
X136678194Y-85936412D01*
X133060590Y-89554017D01*
X133053475Y-89543368D01*
X132921620Y-89411513D01*
X132994180Y-89389502D01*
X133104494Y-89330537D01*
X133201185Y-89251185D01*
X133280537Y-89154494D01*
X133339502Y-89044180D01*
X133375812Y-88924482D01*
X133388072Y-88800000D01*
X133388072Y-87100000D01*
X133375812Y-86975518D01*
X133339502Y-86855820D01*
X133280537Y-86745506D01*
X133201185Y-86648815D01*
X133104494Y-86569463D01*
X132994180Y-86510498D01*
X132874482Y-86474188D01*
X132750000Y-86461928D01*
X131050000Y-86461928D01*
X130925518Y-86474188D01*
X130805820Y-86510498D01*
X130695506Y-86569463D01*
X130660000Y-86598602D01*
X130660000Y-84278223D01*
X130760000Y-84288072D01*
X131374250Y-84285000D01*
X131533000Y-84126250D01*
X131533000Y-82877000D01*
X131513000Y-82877000D01*
X131513000Y-82623000D01*
X131533000Y-82623000D01*
X131533000Y-81373750D01*
X131374250Y-81215000D01*
X130760000Y-81211928D01*
X130660000Y-81221777D01*
X130660000Y-80660000D01*
X135427114Y-80660000D01*
X135408837Y-80661800D01*
%TA.AperFunction,Conductor*%
D22*
G36*
X135408837Y-80661800D02*
G01*
X135408830Y-80661800D01*
X135285684Y-80673929D01*
X135127683Y-80721858D01*
X134982068Y-80799691D01*
X134887671Y-80877161D01*
X134854436Y-80904436D01*
X134828193Y-80936413D01*
X134516686Y-81247920D01*
X134351184Y-81215000D01*
X134048816Y-81215000D01*
X133752257Y-81273989D01*
X133472905Y-81389701D01*
X133221495Y-81557688D01*
X133155056Y-81624127D01*
X133149502Y-81605820D01*
X133090537Y-81495506D01*
X133011185Y-81398815D01*
X132914494Y-81319463D01*
X132804180Y-81260498D01*
X132684482Y-81224188D01*
X132560000Y-81211928D01*
X131945750Y-81215000D01*
X131787000Y-81373750D01*
X131787000Y-82623000D01*
X131807000Y-82623000D01*
X131807000Y-82877000D01*
X131787000Y-82877000D01*
X131787000Y-84126250D01*
X131945750Y-84285000D01*
X132560000Y-84288072D01*
X132684482Y-84275812D01*
X132804180Y-84239502D01*
X132914494Y-84180537D01*
X133011185Y-84101185D01*
X133090537Y-84004494D01*
X133149502Y-83894180D01*
X133155056Y-83875873D01*
X133221495Y-83942312D01*
X133472905Y-84110299D01*
X133752257Y-84226011D01*
X134048816Y-84285000D01*
X134351184Y-84285000D01*
X134647743Y-84226011D01*
X134927095Y-84110299D01*
X135178505Y-83942312D01*
X135392312Y-83728505D01*
X135560299Y-83477095D01*
X135661928Y-83231742D01*
X135661928Y-83850001D01*
X135678992Y-84023255D01*
X135729528Y-84189851D01*
X135811595Y-84343387D01*
X135922038Y-84477962D01*
X136056613Y-84588405D01*
X136210149Y-84670472D01*
X136376745Y-84721008D01*
X136549999Y-84738072D01*
X137052678Y-84738072D01*
X137378193Y-85063587D01*
X137404436Y-85095564D01*
X137532068Y-85200309D01*
X137677683Y-85278142D01*
X137835684Y-85326071D01*
X137958830Y-85338200D01*
X137958837Y-85338200D01*
X138000000Y-85342254D01*
X138041163Y-85338200D01*
X142208837Y-85338200D01*
X142250000Y-85342254D01*
X142291163Y-85338200D01*
X142291170Y-85338200D01*
X142414316Y-85326071D01*
X142572317Y-85278142D01*
X142717932Y-85200309D01*
X142845564Y-85095564D01*
X142871811Y-85063582D01*
X144002052Y-83933342D01*
X144071807Y-83912182D01*
X144321100Y-83778932D01*
X144539607Y-83599608D01*
X144718932Y-83381101D01*
X144790000Y-83248142D01*
X144861068Y-83381100D01*
X145040392Y-83599607D01*
X145136294Y-83678312D01*
X143152807Y-85661800D01*
X137341162Y-85661800D01*
X137299999Y-85657746D01*
X137258836Y-85661800D01*
X137258830Y-85661800D01*
X137135684Y-85673929D01*
X136977683Y-85721858D01*
X136832068Y-85799691D01*
X136704436Y-85904436D01*
X136678194Y-85936412D01*
X133060590Y-89554017D01*
X133053475Y-89543368D01*
X132921620Y-89411513D01*
X132994180Y-89389502D01*
X133104494Y-89330537D01*
X133201185Y-89251185D01*
X133280537Y-89154494D01*
X133339502Y-89044180D01*
X133375812Y-88924482D01*
X133388072Y-88800000D01*
X133388072Y-87100000D01*
X133375812Y-86975518D01*
X133339502Y-86855820D01*
X133280537Y-86745506D01*
X133201185Y-86648815D01*
X133104494Y-86569463D01*
X132994180Y-86510498D01*
X132874482Y-86474188D01*
X132750000Y-86461928D01*
X131050000Y-86461928D01*
X130925518Y-86474188D01*
X130805820Y-86510498D01*
X130695506Y-86569463D01*
X130660000Y-86598602D01*
X130660000Y-84278223D01*
X130760000Y-84288072D01*
X131374250Y-84285000D01*
X131533000Y-84126250D01*
X131533000Y-82877000D01*
X131513000Y-82877000D01*
X131513000Y-82623000D01*
X131533000Y-82623000D01*
X131533000Y-81373750D01*
X131374250Y-81215000D01*
X130760000Y-81211928D01*
X130660000Y-81221777D01*
X130660000Y-80660000D01*
X135427114Y-80660000D01*
X135408837Y-80661800D01*
G37*
%TD.AperFunction*%
D21*
X140055105Y-80675500D02*
X139857399Y-80877161D01*
X139702834Y-81113517D01*
X139597350Y-81375486D01*
X139545000Y-81653000D01*
X139545000Y-82053000D01*
X140853000Y-82053000D01*
X140853000Y-82033000D01*
X141107000Y-82033000D01*
X141107000Y-82053000D01*
X141127000Y-82053000D01*
X141127000Y-82307000D01*
X141107000Y-82307000D01*
X141107000Y-82327000D01*
X140853000Y-82327000D01*
X140853000Y-82307000D01*
X139545000Y-82307000D01*
X139545000Y-82707000D01*
X139597350Y-82984514D01*
X139702834Y-83246483D01*
X139857399Y-83482839D01*
X140032850Y-83661800D01*
X138347194Y-83661800D01*
X138338072Y-83652678D01*
X138338072Y-83149999D01*
X138321008Y-82976745D01*
X138270472Y-82810149D01*
X138188405Y-82656613D01*
X138077962Y-82522038D01*
X138051109Y-82500000D01*
X138077962Y-82477962D01*
X138188405Y-82343387D01*
X138270472Y-82189851D01*
X138321008Y-82023255D01*
X138338072Y-81850001D01*
X138338072Y-81149999D01*
X138321008Y-80976745D01*
X138270472Y-80810149D01*
X138190215Y-80660000D01*
X140077812Y-80660000D01*
X140055105Y-80675500D01*
%TA.AperFunction,Conductor*%
D22*
G36*
X140055105Y-80675500D02*
G01*
X139857399Y-80877161D01*
X139702834Y-81113517D01*
X139597350Y-81375486D01*
X139545000Y-81653000D01*
X139545000Y-82053000D01*
X140853000Y-82053000D01*
X140853000Y-82033000D01*
X141107000Y-82033000D01*
X141107000Y-82053000D01*
X141127000Y-82053000D01*
X141127000Y-82307000D01*
X141107000Y-82307000D01*
X141107000Y-82327000D01*
X140853000Y-82327000D01*
X140853000Y-82307000D01*
X139545000Y-82307000D01*
X139545000Y-82707000D01*
X139597350Y-82984514D01*
X139702834Y-83246483D01*
X139857399Y-83482839D01*
X140032850Y-83661800D01*
X138347194Y-83661800D01*
X138338072Y-83652678D01*
X138338072Y-83149999D01*
X138321008Y-82976745D01*
X138270472Y-82810149D01*
X138188405Y-82656613D01*
X138077962Y-82522038D01*
X138051109Y-82500000D01*
X138077962Y-82477962D01*
X138188405Y-82343387D01*
X138270472Y-82189851D01*
X138321008Y-82023255D01*
X138338072Y-81850001D01*
X138338072Y-81149999D01*
X138321008Y-80976745D01*
X138270472Y-80810149D01*
X138190215Y-80660000D01*
X140077812Y-80660000D01*
X140055105Y-80675500D01*
G37*
%TD.AperFunction*%
%TD*%
M02*
